{
    "name": "lacedon",
    "creatureType": "aquatic",
    "groups": [
        "monster"
    ],
    "entityClass": "com.lycanitesmobs.core.entity.creature.EntityLacedon",
    "modelClass": "com.lycanitesmobs.client.model.creature.ModelLacedon",
    "loadDefault": true,
    "enabled": true,
    "spawning": {
        "enabled": true,
        "spawners": [
            "water_floor"
        ],
        "disableSubspecies": false,
        "dimensionIds": [
            "minecraft:the_nether",
            "minecraft:the_end"
        ],
        "dimensionListType": "blacklist",
        "ignoreBiome": false,
        "biomeTags": [
            "ocean",
            "beach"
        ],
        "spawnWeight": 8,
        "dungeonWeight": 200,
        "spawnAreaLimit": 5,
        "spawnGroupMin": 1,
        "spawnGroupMax": 3,
        "spawnsInLight": false,
        "spawnsInDark": true,
        "worldDayMin": -1,
        "despawnNatural": true,
        "despawnForced": false
    },
    "width": 0.8,
    "height": 1.6,
    "experience": 5,
    "health": 15,
    "defense": 0,
    "armor": 0,
    "speed": 24,
    "damage": 1,
    "attackSpeed": 1,
    "rangedSpeed": 1,
    "effectDuration": 5,
    "effectAmplifier": 0,
    "pierce": 1,
    "sight": 32,
    "knockbackResistance": 0,
	"bagSize": 5,
    "eggBackColor": "#000099",
    "eggForeColor": "#2244FF",
    "subspecies": [
        {
            "index": 0,
            "variants": [
                {
                    "index": 1,
                    "name": "verdant",
                    "type": "uncommon"
                },
                {
                    "index": 2,
                    "name": "scarlet",
                    "type": "uncommon"
                }
            ]
        }
    ],
    "elements": [
        "water",
        "earth"
    ],
    "diets": [
        "carnivore",
        "piscivore",
        "insectivore"
    ],
    "peaceful": false,
    "summonable": true,
    "tameable": false,
    "mountable": false,
    "summonCost": 2,
    "dungeonLevel": 0,
    "drops": [
        {
            "item": "minecraft:cod",
            "burningItem": "minecraft:cooked_cod",
            "minAmount": 1,
            "maxAmount": 3,
            "chance": 1
        },
        {
            "item": "minecraft:salmon",
            "burningItem": "minecraft:cooked_salmon",
            "minAmount": 1,
            "maxAmount": 3,
            "chance": 0.5
        },
        {
            "item": "minecraft:tropical_fish",
            "minAmount": 1,
            "maxAmount": 2,
            "chance": 0.1
        },
        {
            "item": "minecraft:pufferfish",
            "minAmount": 1,
            "maxAmount": 2,
            "chance": 0.25
        }
    ],
    "sizeScale": 1,
    "hitboxScale": 1
}