{
    "name": "wraamon",
    "creatureType": "beast",
    "groups": [
        "monster"
    ],
    "entityClass": "com.lycanitesmobs.core.entity.creature.EntityWraamon",
    "modelClass": "com.lycanitesmobs.client.model.creature.ModelWraamon",
    "loadDefault": true,
    "enabled": true,
    "spawning": {
        "enabled": true,
        "spawners": [
            "underground",
            "land_deadly"
        ],
        "disableSubspecies": false,
        "dimensionIds": [],
        "dimensionListType": "blacklist",
        "ignoreBiome": false,
        "biomeTags": [
            "all",
            "-nether"
        ],
        "biomeIds": [
            "minecraft:warped_forest"
        ],
        "spawnWeight": 8,
        "dungeonWeight": 200,
        "spawnAreaLimit": 5,
        "spawnGroupMin": 1,
        "spawnGroupMax": 5,
        "spawnsInLight": false,
        "spawnsInDark": true,
        "worldDayMin": -1,
        "despawnNatural": true,
        "despawnForced": false
    },
    "width": 0.5,
    "height": 0.5,
    "experience": 5,
    "health": 5,
    "defense": 0,
    "armor": 0,
    "speed": 32,
    "damage": 2,
    "attackSpeed": 1,
    "rangedSpeed": 1,
    "effectDuration": 3,
    "effectAmplifier": 0,
    "pierce": 1,
    "sight": 24,
    "knockbackResistance": 0,
	"bagSize": 5,
    "eggBackColor": "#206d1e",
    "eggForeColor": "#822b9e",
    "subspecies": [
        {
            "index": 0,
            "variants": [
                {
                    "index": 1,
                    "name": "dark",
                    "type": "uncommon"
                },
                {
                    "index": 2,
                    "name": "lux",
                    "type": "uncommon"
                }
            ]
        }
    ],
    "element": "chaos",
    "diets": [
        "carnivore",
        "piscivore",
        "insectivore",
        "herbivore",
        "frugivore",
        "fungivore"
    ],
    "peaceful": false,
    "summonable": true,
    "tameable": false,
    "mountable": false,
    "perchable": true,
    "summonCost": 2,
    "dungeonLevel": 1,
    "drops": [
        {
            "item": "minecraft:ender_pearl",
            "minAmount": 1,
            "maxAmount": 1,
            "chance": 1
        },
        {
            "item": "minecraft:chorus_fruit",
            "minAmount": 1,
            "maxAmount": 3,
            "chance": 0.5
        },
        {
            "item": "minecraft:rabbit",
            "minAmount": 1,
            "maxAmount": 1,
            "chance": 0.5
        },
        {
            "item": "lycanitesmobs:chaosorbcharge",
            "minAmount": 1,
            "maxAmount": 2,
            "chance": 0.5
        }
    ],
    "sizeScale": 1,
    "hitboxScale": 1
}