# Blender v2.67 (sub 0) OBJ File: 'joustealpha.blend'
# www.blender.org
mtllib joustealpha.mtl
o BackLeftLeg
v 0.523786 0.781969 -0.364875
v 0.281340 0.713577 -0.085575
v 0.084744 0.713577 -0.223233
v 0.264279 0.781969 -0.546584
v 0.627367 1.278127 -0.512803
v 0.212511 0.921423 0.012724
v 0.015915 0.921423 -0.124935
v 0.367859 1.278127 -0.694512
v 0.508194 0.831585 -0.397839
v 0.300588 0.831585 -0.543206
v 0.591058 1.228511 -0.516181
v 0.383452 1.228511 -0.661548
v 0.641229 0.433393 -0.665159
v 0.506285 0.433393 -0.759648
v 0.695091 0.691395 -0.742081
v 0.560147 0.691396 -0.836570
v 0.706622 -0.003418 -0.772910
v 0.585173 -0.003418 -0.857950
v 0.755098 0.228784 -0.842140
v 0.633648 0.228784 -0.927180
vt 0.826950 0.609009
vt 0.814125 0.995910
vt 0.999113 0.995910
vt 0.560606 0.994735
vt 0.939394 0.994735
vt 0.939394 0.903074
vt 0.507165 0.807980
vt 0.886320 0.807980
vt 0.848405 0.786306
vt 0.921089 0.807980
vt 0.930338 0.997014
vt 0.988144 0.997014
vt 0.886320 0.591239
vt 0.840362 0.997014
vt 0.553123 0.997014
vt 0.919918 0.868412
vt 1.000417 0.868412
vt 0.986330 0.680322
vt 0.507165 0.591239
vt 0.545080 0.786306
vt 0.848405 0.612913
vt 0.545080 0.612913
vt 0.934005 0.680322
vt 0.983713 0.511828
vt 0.984106 0.884984
vt 0.805648 0.985405
vt 0.822025 0.795517
vt 0.859656 0.972109
vt 0.519548 0.972109
vt 0.579067 0.747725
vt 0.789084 0.565619
vt 0.590120 0.565619
vt 0.590120 0.511828
vt 0.981479 0.691135
vt 0.884399 0.561943
vt 0.800138 0.747725
vt 0.998961 0.815669
vt 0.560606 0.903074
vt 0.997393 0.807980
vt 0.936621 0.511828
vt 0.789084 0.511828
vt 0.988797 0.503196
usemtl None
s off
f 5/1 6/2 2/3
f 6/4 7/5 3/6
f 7/2 8/1 3/3
f 1/7 4/8 10/9
f 1/10 2/11 3/12
f 8/13 7/14 6/15
f 9/16 10/17 14/18
f 5/19 1/7 9/20
f 4/8 8/13 12/21
f 8/13 5/19 11/22
f 13/23 14/18 18/24
f 10/25 12/26 16/27
f 12/28 11/29 15/30
f 11/26 9/25 15/27
f 20/31 19/32 17/33
f 15/27 13/34 19/35
f 14/34 16/27 20/35
f 16/36 15/30 19/32
f 1/37 5/1 2/3
f 2/38 6/4 3/6
f 8/1 4/37 3/3
f 9/20 1/7 10/9
f 4/39 1/10 3/12
f 5/19 8/13 6/15
f 13/23 9/16 14/18
f 11/22 5/19 9/20
f 10/9 4/8 12/21
f 12/21 8/13 11/22
f 17/40 13/23 18/24
f 14/34 10/25 16/27
f 16/36 12/28 15/30
f 9/25 13/34 15/27
f 18/41 20/31 17/33
f 13/34 17/42 19/35
f 18/42 14/34 20/35
f 20/31 16/36 19/32
o BackRightLeg
v -0.523786 0.781969 -0.364875
v -0.281340 0.713577 -0.085575
v -0.084744 0.713577 -0.223233
v -0.264279 0.781969 -0.546584
v -0.627367 1.278127 -0.512803
v -0.212511 0.921423 0.012724
v -0.015915 0.921423 -0.124935
v -0.367859 1.278127 -0.694512
v -0.508194 0.831585 -0.397839
v -0.300588 0.831585 -0.543206
v -0.591058 1.228511 -0.516181
v -0.383452 1.228511 -0.661548
v -0.641230 0.433393 -0.665159
v -0.506286 0.433393 -0.759648
v -0.695091 0.691395 -0.742081
v -0.560147 0.691396 -0.836570
v -0.706622 -0.003418 -0.772910
v -0.585173 -0.003418 -0.857950
v -0.755098 0.228784 -0.842140
v -0.633648 0.228784 -0.927180
vt 0.826950 0.609009
vt 0.814125 0.995910
vt 0.999113 0.995910
vt 0.560606 0.994735
vt 0.939394 0.994735
vt 0.939394 0.903074
vt 0.507165 0.807980
vt 0.886320 0.807980
vt 0.848405 0.786306
vt 0.921089 0.807980
vt 0.930338 0.997014
vt 0.988144 0.997014
vt 0.886320 0.591239
vt 0.840362 0.997014
vt 0.553123 0.997014
vt 0.919918 0.868412
vt 1.000417 0.868412
vt 0.986330 0.680322
vt 0.507165 0.591239
vt 0.545080 0.786306
vt 0.848405 0.612913
vt 0.545080 0.612913
vt 0.934005 0.680322
vt 0.983713 0.511828
vt 0.984106 0.884984
vt 0.805648 0.985405
vt 0.822025 0.795517
vt 0.859656 0.972109
vt 0.519548 0.972109
vt 0.579067 0.747725
vt 0.789084 0.565619
vt 0.590120 0.565619
vt 0.590120 0.511828
vt 0.981479 0.691135
vt 0.884399 0.561943
vt 0.800138 0.747725
vt 0.998961 0.815669
vt 0.560606 0.903074
vt 0.997393 0.807980
vt 0.936621 0.511828
vt 0.789084 0.511828
vt 0.988797 0.503196
usemtl None
s off
f 25/43 26/44 22/45
f 26/46 27/47 23/48
f 27/44 28/43 23/45
f 21/49 24/50 30/51
f 21/52 22/53 23/54
f 28/55 27/56 26/57
f 29/58 30/59 34/60
f 25/61 21/49 29/62
f 24/50 28/55 32/63
f 28/55 25/61 31/64
f 33/65 34/60 38/66
f 30/67 32/68 36/69
f 32/70 31/71 35/72
f 31/68 29/67 35/69
f 40/73 39/74 37/75
f 35/69 33/76 39/77
f 34/76 36/69 40/77
f 36/78 35/72 39/74
f 21/79 25/43 22/45
f 22/80 26/46 23/48
f 28/43 24/79 23/45
f 29/62 21/49 30/51
f 24/81 21/52 23/54
f 25/61 28/55 26/57
f 33/65 29/58 34/60
f 31/64 25/61 29/62
f 30/51 24/50 32/63
f 32/63 28/55 31/64
f 37/82 33/65 38/66
f 34/76 30/67 36/69
f 36/78 32/70 35/72
f 29/67 33/76 35/69
f 38/83 40/73 37/75
f 33/76 37/84 39/77
f 38/84 34/76 40/77
f 40/73 36/78 39/74
o FrontRightLeg
v -0.264279 0.781969 0.546584
v -0.084744 0.713577 0.223233
v -0.281340 0.713577 0.085575
v -0.523786 0.781969 0.364875
v -0.367859 1.278127 0.694512
v -0.015915 0.921423 0.124935
v -0.212511 0.921423 -0.012723
v -0.627367 1.278127 0.512803
v -0.300588 0.831585 0.543206
v -0.508194 0.831585 0.397839
v -0.383452 1.228511 0.661548
v -0.591058 1.228511 0.516181
v -0.506286 0.433393 0.759648
v -0.641230 0.433393 0.665159
v -0.560147 0.691395 0.836570
v -0.695091 0.691395 0.742082
v -0.585173 -0.003418 0.857950
v -0.706622 -0.003418 0.772910
v -0.633648 0.228784 0.927180
v -0.755098 0.228784 0.842140
vt 0.826950 0.609009
vt 0.814125 0.995910
vt 0.999113 0.995910
vt 0.560606 0.994735
vt 0.939394 0.994735
vt 0.939394 0.903074
vt 0.507165 0.807980
vt 0.886320 0.807980
vt 0.848405 0.786306
vt 0.921089 0.807980
vt 0.930338 0.997014
vt 0.988144 0.997014
vt 0.886320 0.591239
vt 0.840362 0.997014
vt 0.553123 0.997014
vt 0.919918 0.868412
vt 1.000417 0.868412
vt 0.986330 0.680322
vt 0.507165 0.591239
vt 0.545080 0.786306
vt 0.848405 0.612913
vt 0.545080 0.612913
vt 0.934005 0.680322
vt 0.983713 0.511828
vt 0.984106 0.884984
vt 0.805648 0.985405
vt 0.822025 0.795517
vt 0.859656 0.972109
vt 0.519548 0.972109
vt 0.579067 0.747725
vt 0.789084 0.565619
vt 0.590120 0.565619
vt 0.590120 0.511828
vt 0.981479 0.691135
vt 0.884399 0.561943
vt 0.800138 0.747725
vt 0.998961 0.815669
vt 0.560606 0.903074
vt 0.997393 0.807980
vt 0.936621 0.511828
vt 0.789084 0.511828
vt 0.988797 0.503196
usemtl None
s off
f 45/85 46/86 42/87
f 46/88 47/89 43/90
f 47/86 48/85 43/87
f 41/91 44/92 50/93
f 41/94 42/95 43/96
f 48/97 47/98 46/99
f 49/100 50/101 54/102
f 45/103 41/91 49/104
f 44/92 48/97 52/105
f 48/97 45/103 51/106
f 53/107 54/102 58/108
f 50/109 52/110 56/111
f 52/112 51/113 55/114
f 51/110 49/109 55/111
f 60/115 59/116 57/117
f 55/111 53/118 59/119
f 54/118 56/111 60/119
f 56/120 55/114 59/116
f 41/121 45/85 42/87
f 42/122 46/88 43/90
f 48/85 44/121 43/87
f 49/104 41/91 50/93
f 44/123 41/94 43/96
f 45/103 48/97 46/99
f 53/107 49/100 54/102
f 51/106 45/103 49/104
f 50/93 44/92 52/105
f 52/105 48/97 51/106
f 57/124 53/107 58/108
f 54/118 50/109 56/111
f 56/120 52/112 55/114
f 49/109 53/118 55/111
f 58/125 60/115 57/117
f 53/118 57/126 59/119
f 58/126 54/118 60/119
f 60/115 56/120 59/116
o Mouth
v 0.134400 2.278044 0.431722
v -0.134400 2.278044 0.431722
v 0.134400 2.045256 0.297322
v -0.134400 2.045256 0.297322
v 0.112000 2.141527 0.606361
v -0.112000 2.141527 0.606361
v 0.112000 1.888765 0.526050
v -0.112000 1.888764 0.526050
v 0.112000 1.974888 1.097811
v -0.112000 1.974888 1.097811
v 0.112000 1.844903 0.968937
v -0.112000 1.844903 0.968938
v 0.089600 1.974609 1.097836
v -0.089600 1.974609 1.097836
v 0.089600 1.869172 1.107060
v -0.089600 1.869172 1.107060
v 0.035840 2.015854 1.527435
v -0.035840 2.015854 1.527435
v 0.035840 1.973679 1.531125
v -0.035840 1.973679 1.531125
vt 0.240214 0.993164
vt 0.140214 0.993164
vt 0.148547 0.908312
vt 0.231881 0.908312
vt 0.390214 0.993164
vt 0.490214 0.993164
vt 0.490214 0.787311
vt 0.390214 0.787311
vt 0.148547 0.844118
vt 0.231881 0.844118
vt 0.481881 0.694082
vt 0.398547 0.694082
vt 0.463069 0.999194
vt 0.305761 0.993073
vt 0.303511 0.926723
vt 0.493539 0.935592
vt 0.360453 0.797487
vt 0.360648 0.797469
vt 0.469169 0.823778
vt 0.481881 0.721556
vt 0.398547 0.721556
vt 0.223547 0.843898
vt 0.156881 0.843898
vt 0.176881 0.937797
vt 0.203547 0.937797
vt 0.434553 0.790567
vt 0.473547 0.760581
vt 0.406881 0.760581
vt 0.426881 0.904470
vt 0.453547 0.904470
vt 0.453547 0.937797
vt 0.426881 0.937797
vt 0.382911 0.692675
vt 0.412472 0.689914
usemtl None
s off
f 61/127 62/128 66/129 65/130
f 62/131 61/132 63/133 64/134
f 65/130 66/129 70/135 69/136
f 64/134 63/133 67/137 68/138
f 63/139 61/140 65/141 67/142
f 62/140 64/139 68/142 66/141
f 69/143 70/143 74/144 73/144
f 67/142 65/141 69/143 71/145
f 66/141 68/142 72/145 70/143
f 68/138 67/137 71/146 72/147
f 73/148 74/149 78/150 77/151
f 71/145 69/143 73/144 75/152
f 70/143 72/145 76/152 74/144
f 72/147 71/146 75/153 76/154
f 80/155 79/156 77/157 78/158
f 76/154 75/153 79/156 80/155
f 75/152 73/144 77/159 79/160
f 74/144 76/152 80/160 78/159
o FrontLeftLeg
v 0.264279 0.781969 0.546584
v 0.084744 0.713577 0.223233
v 0.281340 0.713577 0.085575
v 0.523786 0.781969 0.364875
v 0.367859 1.278127 0.694512
v 0.015915 0.921423 0.124935
v 0.212511 0.921423 -0.012724
v 0.627367 1.278127 0.512803
v 0.300588 0.831585 0.543206
v 0.508194 0.831585 0.397839
v 0.383452 1.228511 0.661548
v 0.591058 1.228511 0.516181
v 0.506286 0.433393 0.759648
v 0.641230 0.433393 0.665159
v 0.560147 0.691395 0.836570
v 0.695091 0.691395 0.742082
v 0.585173 -0.003418 0.857950
v 0.706622 -0.003418 0.772910
v 0.633648 0.228784 0.927180
v 0.755098 0.228784 0.842140
vt 0.826950 0.609009
vt 0.814125 0.995910
vt 0.999113 0.995910
vt 0.560606 0.994735
vt 0.939394 0.994735
vt 0.939394 0.903074
vt 0.507165 0.807980
vt 0.886320 0.807980
vt 0.848405 0.786306
vt 0.921089 0.807980
vt 0.930338 0.997014
vt 0.988144 0.997014
vt 0.886320 0.591239
vt 0.840362 0.997014
vt 0.553123 0.997014
vt 0.919918 0.868412
vt 1.000417 0.868412
vt 0.986330 0.680322
vt 0.507165 0.591239
vt 0.545080 0.786306
vt 0.848405 0.612913
vt 0.545080 0.612913
vt 0.934005 0.680322
vt 0.983713 0.511828
vt 0.984106 0.884984
vt 0.805648 0.985405
vt 0.822025 0.795517
vt 0.859656 0.972109
vt 0.519548 0.972109
vt 0.579067 0.747725
vt 0.789084 0.565619
vt 0.590120 0.565619
vt 0.590120 0.511828
vt 0.981479 0.691135
vt 0.884399 0.561943
vt 0.800138 0.747725
vt 0.998961 0.815669
vt 0.560606 0.903074
vt 0.997393 0.807980
vt 0.936621 0.511828
vt 0.789084 0.511828
vt 0.988797 0.503196
usemtl None
s off
f 85/161 86/162 82/163
f 86/164 87/165 83/166
f 87/162 88/161 83/163
f 81/167 84/168 90/169
f 81/170 82/171 83/172
f 88/173 87/174 86/175
f 89/176 90/177 94/178
f 85/179 81/167 89/180
f 84/168 88/173 92/181
f 88/173 85/179 91/182
f 93/183 94/178 98/184
f 90/185 92/186 96/187
f 92/188 91/189 95/190
f 91/186 89/185 95/187
f 100/191 99/192 97/193
f 95/187 93/194 99/195
f 94/194 96/187 100/195
f 96/196 95/190 99/192
f 81/197 85/161 82/163
f 82/198 86/164 83/166
f 88/161 84/197 83/163
f 89/180 81/167 90/169
f 84/199 81/170 83/172
f 85/179 88/173 86/175
f 93/183 89/176 94/178
f 91/182 85/179 89/180
f 90/169 84/168 92/181
f 92/181 88/173 91/182
f 97/200 93/183 98/184
f 94/194 90/185 96/187
f 96/196 92/188 95/190
f 89/185 93/194 95/187
f 98/201 100/191 97/193
f 93/194 97/202 99/195
f 98/202 94/194 100/195
f 100/191 96/196 99/192
o Head
v -0.218400 1.952867 0.310138
v -0.436800 2.468343 -0.309769
v 0.436800 2.468343 -0.309769
v 0.218400 1.952867 0.310138
v -0.280000 2.740713 0.449056
v -0.436800 2.629056 -0.060713
v 0.436800 2.629056 -0.060713
v 0.280000 2.740713 0.449056
v -0.160000 2.348001 0.472227
v 0.160000 2.348001 0.472227
v -0.224000 2.709595 0.585358
v 0.224000 2.709595 0.585358
v -0.160000 2.228632 0.811885
v 0.160000 2.228632 0.811885
v -0.160000 2.465435 0.898074
v 0.160000 2.465435 0.898074
v -0.128000 2.229008 0.812021
v 0.128000 2.229008 0.812021
v -0.128000 2.371089 0.863735
v 0.128000 2.371089 0.863735
v -0.051200 2.036571 1.210218
v 0.051200 2.036571 1.210218
v -0.051200 2.093404 1.230904
v 0.051200 2.093404 1.230904
vt 0.017168 0.936993
vt 0.046493 0.998957
vt 0.328880 1.001627
vt 0.488520 0.839128
vt 0.072526 0.693693
vt 0.072526 0.990461
vt 0.249162 0.965730
vt 0.249162 0.718423
vt 0.484676 0.780250
vt 0.484676 0.903903
vt 0.163122 0.912736
vt 0.163122 0.771418
vt 0.013648 0.965730
vt 0.013648 0.718423
vt 0.197610 0.912736
vt 0.197610 0.771418
vt 0.017755 0.743154
vt 0.017755 0.941000
vt 0.177619 0.840224
vt 0.008703 0.911680
vt 0.123537 0.788638
vt 0.123358 0.788709
vt 0.011011 0.833845
vt 0.051490 0.771418
vt 0.051490 0.912736
vt 0.197378 0.785549
vt 0.197378 0.898604
vt 0.268248 0.864688
vt 0.268248 0.819466
vt 0.055842 0.815834
vt 0.109706 0.785549
vt 0.109706 0.898604
vt 0.233180 0.864688
vt 0.233180 0.819466
vt 0.141054 0.690528
vt 0.114048 0.701377
usemtl None
s off
f 105/203 106/204 102/205 101/206
f 106/207 107/208 103/209 102/210
f 107/204 108/203 104/206 103/205
f 101/211 104/212 110/213 109/214
f 101/211 102/210 103/209 104/212
f 108/215 107/208 106/207 105/216
f 109/214 110/213 114/217 113/218
f 108/215 105/216 111/219 112/220
f 105/203 101/206 109/221 111/222
f 104/206 108/203 112/222 110/221
f 113/223 114/223 118/224 117/224
f 111/222 109/221 113/223 115/225
f 110/221 112/222 116/225 114/223
f 112/220 111/219 115/226 116/227
f 117/228 118/229 122/230 121/231
f 115/225 113/223 117/224 119/232
f 114/223 116/225 120/232 118/224
f 116/227 115/226 119/233 120/234
f 124/235 123/236 121/231 122/230
f 120/234 119/233 123/236 124/235
f 119/232 117/224 121/237 123/238
f 118/224 120/232 124/238 122/237
o Neck
v -0.436764 1.740000 -0.250000
v 0.000000 1.740000 -0.478600
v 0.436764 1.740000 -0.250000
v 0.000000 1.730000 0.008600
v 0.000000 0.970000 0.000000
v 0.000000 2.250000 0.030000
v -0.225792 2.250000 0.030000
v -0.508236 1.740000 -0.478600
v -0.200000 0.970000 0.000000
v -0.326118 1.730000 0.008600
v 0.000000 2.478996 -0.267069
v 0.508236 1.740000 -0.478600
v 0.000000 0.970000 -0.180000
v 0.225792 2.250000 0.030000
v 0.326118 1.730000 0.008600
v 0.200000 0.970000 0.000000
v 0.000000 2.071005 0.247069
v 0.000000 0.970000 0.180000
v -0.200000 0.970000 0.180000
v -0.200000 0.970000 -0.180000
v 0.200000 0.970000 -0.180000
v 0.200000 0.970000 0.180000
v -0.195084 2.071005 0.247069
v -0.270950 2.478996 -0.267069
v 0.270950 2.478996 -0.267069
v 0.195084 2.071005 0.247069
vt 0.375156 0.250000
vt 0.250628 0.250000
vt 0.251256 0.500000
vt 0.375628 0.500000
vt 0.500000 0.500000
vt 0.499684 0.250000
vt 0.499367 0.000000
vt 0.374684 0.000000
vt 0.250000 0.000000
vt 0.750000 0.250000
vt 0.999008 0.250000
vt 1.000000 0.500000
vt 0.750000 0.500000
vt 0.500992 0.250000
vt 0.501984 0.000000
vt 0.750000 0.000000
vt 0.998016 0.000000
vt 0.125000 0.250000
vt 0.249504 0.250000
vt 0.250000 0.500000
vt 0.125000 0.500000
vt 0.000000 0.500000
vt 0.000496 0.250000
vt 0.000992 -0.000000
vt 0.125000 -0.000000
vt 0.249008 -0.000000
vt 0.125000 0.050691
vt 0.125000 0.100691
vt 0.075000 0.100691
vt 0.075000 0.050691
vt 0.075000 0.000691
vt 0.125000 0.000691
vt 0.175000 0.000691
vt 0.175000 0.050691
vt 0.175000 0.100691
vt 0.125000 0.593114
vt 0.125000 0.500075
vt 0.247788 0.500075
vt 0.247788 0.593114
vt 0.247788 0.686153
vt 0.125000 0.686153
vt 0.002212 0.686153
vt 0.002212 0.593114
vt 0.002212 0.500075
usemtl None
s off
f 125/239 134/240 147/241 131/242
f 125/239 131/242 148/243 132/244
f 125/239 132/244 144/245 133/246
f 125/239 133/246 143/247 134/240
f 126/248 132/249 148/250 135/251
f 126/248 135/251 149/243 136/252
f 126/248 136/252 145/253 137/254
f 126/248 137/254 144/255 132/249
f 127/239 136/244 149/243 138/242
f 127/239 138/242 150/241 139/240
f 127/239 139/240 146/247 140/246
f 127/239 140/246 145/245 136/244
f 128/256 139/257 150/258 141/259
f 128/256 141/259 147/260 134/261
f 128/256 134/261 143/262 142/263
f 128/256 142/263 146/264 139/257
f 129/265 142/266 143/267 133/268
f 129/265 133/268 144/269 137/270
f 129/265 137/270 145/271 140/272
f 129/265 140/272 146/273 142/266
f 130/274 141/275 150/276 138/277
f 130/274 138/277 149/278 135/279
f 130/274 135/279 148/280 131/281
f 130/274 131/281 147/282 141/275
o Body
v -0.290400 0.680000 0.240000
v -0.290400 0.680000 -0.240000
v 0.290400 0.680000 -0.240000
v 0.290400 0.680000 0.240000
v -0.290400 1.080000 0.240000
v -0.290400 1.080000 -0.240000
v 0.290400 1.080000 -0.240000
v 0.290400 1.080000 0.240000
vt 0.761250 0.495000
vt 0.988750 0.495000
vt 0.988750 0.255000
vt 0.761250 0.255000
vt 0.522500 0.495000
vt 0.977500 0.495000
vt 0.977500 0.255000
vt 0.522500 0.255000
vt 0.977500 0.421003
vt 0.522500 0.421003
vt 0.522500 0.181003
vt 0.977500 0.181003
vt 0.522500 0.005000
vt 0.522500 0.245000
vt 0.977500 0.245000
vt 0.977500 0.005000
usemtl None
s off
f 155/283 156/284 152/285 151/286
f 156/287 157/288 153/289 152/290
f 157/284 158/283 154/286 153/285
f 158/291 155/292 151/293 154/294
f 151/295 152/296 153/297 154/298
f 158/298 157/297 156/296 155/295
