{
  "result": {
    "item": "lycanitesmobs:planttreat",
    "count": 4
  },
  "pattern": [
    " MM",
    "BBM",
    " MM"
  ],
  "type": "minecraft:crafting_shaped",
  "key": {
    "B": {
      "item": "minecraft:sugar_cane"
    },
    "M": {
      "tag": "lycanitesmobs:diet_herbivore"
    }
  }
}